Machine Learning Notes - Random Forest
…
# Tuning results
# 5-fold cross-validation using stratification 
# A tibble: 5 × 4
  splits               id    .metrics          .notes          
  <list>               <chr> <list>            <list>          
1 <split [11756/2940]> Fold1 <tibble [33 × 6]> <tibble [0 × 3]>
2 <split [11757/2939]> Fold2 <tibble [33 × 6]> <tibble [0 × 3]>
3 <split [11757/2939]> Fold3 <tibble [33 × 6]> <tibble [0 × 3]>
4 <split [11757/2939]> Fold4 <tibble [33 × 6]> <tibble [0 × 3]>
5 <split [11757/2939]> Fold5 <tibble [33 × 6]> <tibble [0 × 3]>

collect_metrics(weapon_tune)

# A tibble: 33 × 8
    mtry min_n .metric     .estimator   mean     n std_err .config              
   <int> <int> <chr>       <chr>       <dbl> <int>   <dbl> <chr>                
 1     1    17 accuracy    binary     0.955      5 0.00160 Preprocessor1_Model01
 2     1    17 brier_class binary     0.0417     5 0.00137 Preprocessor1_Model01
 3     1    17 roc_auc     binary     0.673      5 0.00677 Preprocessor1_Model01
 4     1    32 accuracy    binary     0.955      5 0.00160 Preprocessor1_Model02
 5     1    32 brier_class binary     0.0417     5 0.00137 Preprocessor1_Model02
 6     1    32 roc_auc     binary     0.673      5 0.00931 Preprocessor1_Model02
 7     2     5 accuracy    binary     0.955      5 0.00160 Preprocessor1_Model03
 8     2     5 brier_class binary     0.0417     5 0.00128 Preprocessor1_Model03
 9     2     5 roc_auc     binary     0.672      5 0.00663 Preprocessor1_Model03
10     3    21 accuracy    binary     0.955      5 0.00160 Preprocessor1_Model04
# ℹ 23 more rows
…
weapon_pred <- 
  augment(weapon_fit, weapon_train) |> 
  select(WeaponCarryingSchool, .pred_class, .pred_1, .pred_0)

weapon_pred

# A tibble: 14,696 × 4
   WeaponCarryingSchool .pred_class .pred_1 .pred_0
   <fct>                <fct>         <dbl>   <dbl>
 1 0                    0            0.0489   0.951
 2 0                    0            0.0430   0.957
 3 0                    0            0.0351   0.965
 4 0                    0            0.0412   0.959
 5 0                    0            0.0327   0.967
 6 0                    0            0.0880   0.912
 7 0                    0            0.0489   0.951
 8 0                    0            0.0324   0.968
 9 0                    0            0.0488   0.951
10 0                    0            0.0324   0.968
# ℹ 14,686 more rows
…
